map_icons_file version 1
193
player 0 bandyta_1 0.250000 18 0.150000 0.173000 0.000000 0


player_horseman 0 konny 0.250000 113 0.150000 0.173000 0.000000 0


wici_konny 0 wici_konny 0.250000 113 0.150000 0.173000 0.000000 0


gray_knight 0 konni 0.250000 113 0.150000 0.173000 0.000000 0


vaegir_knight 0 konni 0.250000 113 0.150000 0.173000 0.000000 0


flagbearer_a 0 konni 0.250000 113 0.150000 0.173000 0.000000 0


flagbearer_b 0 konni 0.250000 113 0.150000 0.173000 0.000000 0


peasant 0 peasant_a 0.250000 18 0.150000 0.173000 0.000000 0


khergit 0 konny 0.250000 113 0.150000 0.173000 0.000000 0


khergit_horseman_b 0 konny 0.250000 113 0.150000 0.173000 0.000000 0


axeman 0 bandyta_1 0.250000 18 0.150000 0.173000 0.000000 0


viking_raider 0 bandit_b 0.250000 18 0.150000 0.173000 0.000000 0


woman 0 woman_a 0.250000 18 0.150000 0.173000 0.000000 0


woman_b 0 woman_b 0.250000 18 0.150000 0.173000 0.000000 0


town 1 ikonka_grod_2 0.350000 0 0 0 0 0


gniezno 0 gniezno 0.350000 0 0 0 0 0


gdansk 0 gdansk 0.350000 0 0 0 0 0


wolin 0 wolin 0.350000 0 0 0 0 0


town_big 0 ikonka_wiekszy_grod 0.350000 0 0 0 0 0


town_steppe 0 ikonka_grod_2 0.350000 0 0 0 0 0


town_desert 0 ikonka_grod_2 0.350000 0 0 0 0 0


village_a 1 ikonka_wioska 0.450000 0 0 0 0 0


village_b 1 ikonka_wioska 0.450000 0 0 0 0 0


village_c 1 ikonka_wioska_morze 0.450000 0 0 0 0 0


village_burnt_a 1 ikonka_wioska_burned 0.450000 0 0 0 0 0


village_deserted_a 1 ikonka_wioska_burned 0.450000 0 0 0 0 0


village_burnt_b 1 ikonka_wioska_burned 0.450000 0 0 0 0 0


village_deserted_b 1 ikonka_wioska_burned 0.450000 0 0 0 0 0


village_burnt_c 1 ikonka_wioska_morze_burned 0.450000 0 0 0 0 0


village_deserted_c 1 ikonka_wioska_morze_burned 0.450000 0 0 0 0 0


village_snow_a 1 ikonka_wioska 0.450000 0 0 0 0 0


village_snow_burnt_a 1 ikonka_wioska_burned 0.450000 0 0 0 0 0


village_snow_deserted_a 1 ikonka_wioska_burned 0.450000 0 0 0 0 0


ikonka_zboze 1 ikonka_zboze 0.450000 0 0 0 0 0


ikona_maczuga_herkulesa 1 ikona_maczuga_herkulesa 0.450000 0 0 0 0 0


camp 1 oboz 0.450000 0 0 0 0 0


ship 1 boat_sail_on 0.230000 18 0.000000 0.050000 0.000000 0


ship_on_land 1 boat_sail_off 0.230000 0 0 0 0 0


grod_mniejszy 1 grod_mniejszy 0.250000 0 0 0 0 0


grod_mniejszy_targ 1 grod_mniejszy_targ 0.250000 0 0 0 0 0


town_snow 1 ikonka_grod_2 0.350000 0 0 0 0 0


mule 0 icon_mule 0.200000 18 0.150000 0.173000 0.000000 0


cattle 0 icon_cow 0.200000 18 0.150000 0.173000 0.000000 0


training_ground 1 training 0.350000 0 0 0 0 0


bridge_a 1 ikonka_przejscie_woda 1.270000 0 0 0 0 0


bridge_b 1 ikonka_przejscie_woda 0.700000 0 0 0 0 0


bridge_snow_a 1 ikonka_przejscie_woda 1.270000 0 0 0 0 0


custom_banner_01 0 custom_map_banner_01 0.300000 0 0 0 0 1
-70.000000  6 2071 1 1224979098644774912 521 3 1224979098644774913 1224979098644774912 7 4 0 30 2 1224979098644774913 0 1983 2 1729382256910270509 1224979098644774913 3 0 


custom_banner_02 0 custom_map_banner_02 0.300000 0 0 0 0 1
-70.000000  6 2071 1 1224979098644774912 521 3 1224979098644774913 1224979098644774912 7 4 0 30 2 1224979098644774913 0 1983 2 1729382256910270510 1224979098644774913 3 0 


custom_banner_03 0 custom_map_banner_03 0.300000 0 0 0 0 1
-70.000000  6 2071 1 1224979098644774912 521 3 1224979098644774913 1224979098644774912 7 4 0 30 2 1224979098644774913 0 1983 2 1729382256910270508 1224979098644774913 3 0 


banner_01 0 map_flag_01 0.300000 0 0 0 0 0


banner_02 0 map_flag_02 0.300000 0 0 0 0 0


banner_03 0 map_flag_03 0.300000 0 0 0 0 0


banner_04 0 map_flag_04 0.300000 0 0 0 0 0


banner_05 0 map_flag_05 0.300000 0 0 0 0 0


banner_06 0 map_flag_06 0.300000 0 0 0 0 0


banner_07 0 map_flag_07 0.300000 0 0 0 0 0


banner_08 0 map_flag_08 0.300000 0 0 0 0 0


banner_09 0 map_flag_09 0.300000 0 0 0 0 0


banner_10 0 map_flag_10 0.300000 0 0 0 0 0


banner_11 0 map_flag_11 0.300000 0 0 0 0 0


banner_12 0 map_flag_12 0.300000 0 0 0 0 0


banner_13 0 map_flag_13 0.300000 0 0 0 0 0


banner_14 0 map_flag_14 0.300000 0 0 0 0 0


banner_15 0 map_flag_f21 0.300000 0 0 0 0 0


banner_16 0 map_flag_16 0.300000 0 0 0 0 0


banner_17 0 map_flag_17 0.300000 0 0 0 0 0


banner_18 0 map_flag_18 0.300000 0 0 0 0 0


banner_19 0 map_flag_19 0.300000 0 0 0 0 0


banner_20 0 map_flag_20 0.300000 0 0 0 0 0


banner_21 0 map_flag_21 0.300000 0 0 0 0 0


banner_22 0 map_flag_22 0.300000 0 0 0 0 0


banner_23 0 map_flag_23 0.300000 0 0 0 0 0


banner_24 0 map_flag_24 0.300000 0 0 0 0 0


banner_25 0 map_flag_25 0.300000 0 0 0 0 0


banner_26 0 map_flag_26 0.300000 0 0 0 0 0


banner_27 0 map_flag_27 0.300000 0 0 0 0 0


banner_28 0 map_flag_28 0.300000 0 0 0 0 0


banner_29 0 map_flag_29 0.300000 0 0 0 0 0


banner_30 0 map_flag_30 0.300000 0 0 0 0 0


banner_31 0 map_flag_31 0.300000 0 0 0 0 0


banner_32 0 map_flag_32 0.300000 0 0 0 0 0


banner_33 0 map_flag_33 0.300000 0 0 0 0 0


banner_34 0 map_flag_34 0.300000 0 0 0 0 0


banner_35 0 map_flag_35 0.300000 0 0 0 0 0


banner_36 0 map_flag_36 0.300000 0 0 0 0 0


banner_37 0 map_flag_37 0.300000 0 0 0 0 0


banner_38 0 map_flag_38 0.300000 0 0 0 0 0


banner_39 0 map_flag_39 0.300000 0 0 0 0 0


banner_40 0 map_flag_40 0.300000 0 0 0 0 0


banner_41 0 map_flag_41 0.300000 0 0 0 0 0


banner_42 0 map_flag_42 0.300000 0 0 0 0 0


banner_43 0 map_flag_43 0.300000 0 0 0 0 0


banner_44 0 map_flag_44 0.300000 0 0 0 0 0


banner_45 0 map_flag_45 0.300000 0 0 0 0 0


banner_46 0 map_flag_46 0.300000 0 0 0 0 0


banner_47 0 map_flag_47 0.300000 0 0 0 0 0


banner_48 0 map_flag_48 0.300000 0 0 0 0 0


banner_49 0 map_flag_49 0.300000 0 0 0 0 0


banner_50 0 map_flag_50 0.300000 0 0 0 0 0


banner_51 0 map_flag_51 0.300000 0 0 0 0 0


banner_52 0 map_flag_52 0.300000 0 0 0 0 0


banner_53 0 map_flag_53 0.300000 0 0 0 0 0


banner_54 0 map_flag_54 0.300000 0 0 0 0 0


banner_55 0 map_flag_55 0.300000 0 0 0 0 0


banner_56 0 map_flag_56 0.300000 0 0 0 0 0


banner_57 0 map_flag_57 0.300000 0 0 0 0 0


banner_58 0 map_flag_58 0.300000 0 0 0 0 0


banner_59 0 map_flag_59 0.300000 0 0 0 0 0


banner_60 0 map_flag_60 0.300000 0 0 0 0 0


banner_61 0 map_flag_61 0.300000 0 0 0 0 0


banner_62 0 map_flag_62 0.300000 0 0 0 0 0


banner_63 0 map_flag_63 0.300000 0 0 0 0 0


banner_64 0 map_flag_d01 0.300000 0 0 0 0 0


banner_65 0 map_flag_d02 0.300000 0 0 0 0 0


banner_66 0 map_flag_d03 0.300000 0 0 0 0 0


banner_67 0 map_flag_d04 0.300000 0 0 0 0 0


banner_68 0 map_flag_d05 0.300000 0 0 0 0 0


banner_69 0 map_flag_d06 0.300000 0 0 0 0 0


banner_70 0 map_flag_d07 0.300000 0 0 0 0 0


banner_71 0 map_flag_d08 0.300000 0 0 0 0 0


banner_72 0 map_flag_d09 0.300000 0 0 0 0 0


banner_73 0 map_flag_d10 0.300000 0 0 0 0 0


banner_74 0 map_flag_d11 0.300000 0 0 0 0 0


banner_75 0 map_flag_d12 0.300000 0 0 0 0 0


banner_76 0 map_flag_d13 0.300000 0 0 0 0 0


banner_77 0 map_flag_d14 0.300000 0 0 0 0 0


banner_78 0 map_flag_d15 0.300000 0 0 0 0 0


banner_79 0 map_flag_d16 0.300000 0 0 0 0 0


banner_80 0 map_flag_d17 0.300000 0 0 0 0 0


banner_81 0 map_flag_d18 0.300000 0 0 0 0 0


banner_82 0 map_flag_d19 0.300000 0 0 0 0 0


banner_83 0 map_flag_d20 0.300000 0 0 0 0 0


banner_84 0 map_flag_d21 0.300000 0 0 0 0 0


banner_85 0 map_flag_e01 0.300000 0 0 0 0 0


banner_86 0 map_flag_e02 0.300000 0 0 0 0 0


banner_87 0 map_flag_e03 0.300000 0 0 0 0 0


banner_88 0 map_flag_e04 0.300000 0 0 0 0 0


banner_89 0 map_flag_e05 0.300000 0 0 0 0 0


banner_90 0 map_flag_e06 0.300000 0 0 0 0 0


banner_91 0 map_flag_e07 0.300000 0 0 0 0 0


banner_92 0 map_flag_e08 0.300000 0 0 0 0 0


banner_93 0 map_flag_e09 0.300000 0 0 0 0 0


banner_94 0 map_flag_e10 0.300000 0 0 0 0 0


banner_95 0 map_flag_e11 0.300000 0 0 0 0 0


banner_96 0 map_flag_e12 0.300000 0 0 0 0 0


banner_97 0 map_flag_e13 0.300000 0 0 0 0 0


banner_98 0 map_flag_e14 0.300000 0 0 0 0 0


banner_99 0 map_flag_e15 0.300000 0 0 0 0 0


banner_100 0 map_flag_e16 0.300000 0 0 0 0 0


banner_101 0 map_flag_e17 0.300000 0 0 0 0 0


banner_102 0 map_flag_e18 0.300000 0 0 0 0 0


banner_103 0 map_flag_e19 0.300000 0 0 0 0 0


banner_104 0 map_flag_e20 0.300000 0 0 0 0 0


banner_105 0 map_flag_e21 0.300000 0 0 0 0 0


banner_106 0 map_flag_f01 0.300000 0 0 0 0 0


banner_107 0 map_flag_f02 0.300000 0 0 0 0 0


banner_108 0 map_flag_f03 0.300000 0 0 0 0 0


banner_109 0 map_flag_f04 0.300000 0 0 0 0 0


banner_110 0 map_flag_f05 0.300000 0 0 0 0 0


banner_111 0 map_flag_f06 0.300000 0 0 0 0 0


banner_112 0 map_flag_f07 0.300000 0 0 0 0 0


banner_113 0 map_flag_f08 0.300000 0 0 0 0 0


banner_114 0 map_flag_f09 0.300000 0 0 0 0 0


banner_115 0 map_flag_f10 0.300000 0 0 0 0 0


banner_116 0 map_flag_f11 0.300000 0 0 0 0 0


banner_117 0 map_flag_f12 0.300000 0 0 0 0 0


banner_118 0 map_flag_f13 0.300000 0 0 0 0 0


banner_119 0 map_flag_f14 0.300000 0 0 0 0 0


banner_120 0 map_flag_f15 0.300000 0 0 0 0 0


banner_121 0 map_flag_f16 0.300000 0 0 0 0 0


banner_122 0 map_flag_f17 0.300000 0 0 0 0 0


banner_123 0 map_flag_f18 0.300000 0 0 0 0 0


banner_124 0 map_flag_f19 0.300000 0 0 0 0 0


banner_125 0 map_flag_f20 0.300000 0 0 0 0 0


banner_126 0 map_flag_f01 0.300000 0 0 0 0 0


banner_127 0 map_flag_f02 0.300000 0 0 0 0 0


banner_128 0 map_flag_f03 0.300000 0 0 0 0 0


banner_129 0 map_flag_f04 0.300000 0 0 0 0 0


banner_130 0 map_flag_f05 0.300000 0 0 0 0 0


banner_131 0 map_flag_f06 0.300000 0 0 0 0 0


banner_132 0 map_flag_f07 0.300000 0 0 0 0 0


banner_133 0 map_flag_f08 0.300000 0 0 0 0 0


banner_134 0 map_flag_f09 0.300000 0 0 0 0 0


banner_135 0 map_flag_f10 0.300000 0 0 0 0 0


map_flag_kingdom_a 0 map_flag_kingdom_a 0.300000 0 0 0 0 0


map_flag_kingdom_b 0 map_flag_kingdom_b 0.300000 0 0 0 0 0


map_flag_kingdom_c 0 map_flag_kingdom_c 0.300000 0 0 0 0 0


map_flag_kingdom_d 0 map_flag_kingdom_d 0.300000 0 0 0 0 0


map_flag_kingdom_e 0 map_flag_kingdom_e 0.300000 0 0 0 0 0


map_flag_kingdom_f 0 map_flag_kingdom_f 0.300000 0 0 0 0 0


banner_136 0 map_flag_15 0.300000 0 0 0 0 0


bandit_lair 1 map_bandit_lair 0.450000 0 0 0 0 0


